intro to text analysis
…
Now we need to transform this to one-token-per-document-per-row.

library(tidytext)

df %>%
  unnest_tokens(word, text)

## # A tibble: 26 x 2
##     line word  
##    <int> <chr> 
##  1     1 and   
##  2     1 the   
##  3     1 days  
##  4     1 are   
##  5     1 not   
##  6     1 full  
##  7     1 enough
##  8     2 and   
##  9     2 the   
## 10     2 nights
## # ... with 16 more rows
…
## [1] "book"       "linenumber" "chapter"    "word"

tidy_books %>%
  count(word, sort = TRUE) %>%
  filter(n > 600)

## # A tibble: 152 x 2
##    word      n
##    <chr> <int>
##  1 the   26351
##  2 to    24044
##  3 and   22515
##  4 of    21178
##  5 a     13408
##  6 her   13055
##  7 i     12006
##  8 in    11217
##  9 was   11204
## 10 it    10234
## # ... with 142 more rows

tidy_books %>%
  filter(book=="Persuasion")%>%
  anti_join(stop_words)%>%
  count(word, sort = TRUE)

## Joining, by = "word"

## # A tibble: 5,340 x 2
##    word          n
##    <chr>     <int>
##  1 anne        447
##  2 captain     303
##  3 elliot      254
##  4 lady        214
##  5 wentworth   191
##  6 charles     155
##  7 time        152
##  8 sir         149
##  9 miss        125
## 10 walter      123
## # ... with 5,330 more rows
…
N-Grams

a_bigrams <- austen_books() %>%
  unnest_tokens(bigram, text, token = "ngrams", n = 2)%>%
  count(bigram, sort = TRUE)

a_bigrams

## # A tibble: 193,210 x 2
##    bigram      n
##    <chr>   <int>
##  1 <NA>    12242
##  2 of the   2853
##  3 to be    2670
##  4 in the   2221
##  5 it was   1691
##  6 i am     1485
##  7 she had  1405
##  8 of her   1363
##  9 to the   1315
## 10 she was  1309
## # ... with 193,200 more rows

library(tidyr)

bigrams_sepr <- a_bigrams %>%
  separate(bigram, c("word1", "word2"), sep = " ")
bigrams_sepr

## # A tibble: 193,210 x 3
##    word1 word2     n
##    <chr> <chr> <int>
##  1 <NA>  <NA>  12242
##  2 of    the    2853
##  3 to    be     2670
##  4 in    the    2221
##  5 it    was    1691
##  6 i     am     1485
##  7 she   had    1405
##  8 of    her    1363
##  9 to    the    1315
## 10 she   was    1309
## # ... with 193,200 more rows

filt <- bigrams_sepr %>%
  filter(!word1 %in% stop_words$word) %>%
  filter(!word2 %in% stop_words$word)
filt

## # A tibble: 28,975 x 3
##    word1   word2         n
##    <chr>   <chr>     <int>
##  1 <NA>    <NA>      12242
##  2 sir     thomas      266
##  3 miss    crawford    196
##  4 captain wentworth   143
##  5 miss    woodhouse   143
##  6 frank   churchill   114
##  7 lady    russell     110
##  8 sir     walter      108
##  9 lady    bertram     101
## 10 miss    fairfax      98
## # ... with 28,965 more rows
…
## # A tibble: 6 x 2
##   word1         n
##   <chr>     <int>
## 1 _must_        1
## 2 _not_         1
## 3 elliot        1
## 4 henrietta     1
## 5 knightley     1
## 6 lizzy         1

filt %>%
  filter(word1 == "marry") %>%
  count(word2, sort = TRUE)

## # A tibble: 23 x 2
##    word2           n
##    <chr>       <int>
##  1 _her_           1
##  2 _prudently_     1
##  3 anne            1
##  4 captain         1
##  5 charles         1
##  6 choose          1
##  7 edward          1
##  8 eliza           1
##  9 fanny           1
## 10 frederick       1
## # ... with 13 more rows

Sentiment Analysis

library(textdata)

## Warning: package 'textdata' was built under R version 4.1.1

get_sentiments("nrc")

## # A tibble: 13,875 x 2
##    word        sentiment
##    <chr>       <chr>    
##  1 abacus      trust    
##  2 abandon     fear     
##  3 abandon     negative 
##  4 abandon     sadness  
##  5 abandoned   anger    
##  6 abandoned   fear     
##  7 abandoned   negative 
##  8 abandoned   sadness  
##  9 abandonment anger    
## 10 abandonment fear     
## # ... with 13,865 more rows
…
nrc_anticipation <- get_sentiments("nrc") %>% 
  filter(sentiment == "anticipation")

tidy_books %>%
  filter(book == "Persuasion") %>%
  inner_join(nrc_anticipation) %>%
  count(word, sort = TRUE)

## Joining, by = "word"

## # A tibble: 276 x 2
##    word        n
##    <chr>   <int>
##  1 good      187
##  2 time      152
##  3 long       95
##  4 thought    90
##  5 present    65
##  6 happy      64
##  7 hope       53
##  8 deal       45
##  9 spirits    41
## 10 feeling    37
## # ... with 266 more rows
…
## -- Conflicts ------------------------------------------ tidyverse_conflicts() --
## x dplyr::filter() masks stats::filter()
## x dplyr::lag()    masks stats::lag()

austen_nrc <- tidy_books %>%
  inner_join(get_sentiments("nrc")) %>%
  count(word, sentiment, sort = TRUE) %>%
  ungroup()

## Joining, by = "word"

austen_nrc

## # A tibble: 6,830 x 3
##    word    sentiment        n
##    <chr>   <chr>        <int>
##  1 good    anticipation  1380
##  2 good    joy           1380
##  3 good    positive      1380
##  4 good    surprise      1380
##  5 good    trust         1380
##  6 time    anticipation  1337
##  7 thought anticipation   839
##  8 dear    positive       822
##  9 sir     positive       806
## 10 sir     trust          806
## # ... with 6,820 more rows
…
library(genius) 

ftv <- genius_album(artist = "Taylor Swift", album = "Fearless (Taylor's Version")

## Joining, by = c("album_name", "track_n", "track_url")

ftv

## # A tibble: 27 x 2
##    track_n track_title                                    
##      <int> <chr>                                          
##  1       1 Fearless (Taylor's Version)                    
##  2       2 Fifteen (Taylor's Version)                     
##  3       3 Love Story (Taylor's Version)                  
##  4       4 Hey Stephen (Taylor's Version)                 
##  5       5 White Horse (Taylor's Version)                 
##  6       6 You Belong With Me (Taylor's Version)          
##  7       7 Breathe (Taylor's Version) (Ft.ColbieCaillat)
##  8       8 Tell Me Why (Taylor's Version)                 
##  9       9 You're Not Sorry (Taylor's Version)            
## 10      10 The Way I Loved You (Taylor's Version)         
## # ... with 17 more rows
…
